iteration,lower_bound,upper_bound
0,-4.701674850808561,3.4950133957669998
1,-6.00000007490001,3.495013398395329
2,-1.6361651538531041,-0.22204803020668393
3,-0.8258860763875625,-0.4724680021572155
4,-0.5237980075459285,-0.43559800682434835
5,-0.4981780507668633,-0.47612799999937977
6,-0.48536802182204053,-0.4798554990704297
7,-0.48079200000912986,-0.4793874999024623
8,-0.4803240014250835,-0.47995950065960596
9,-0.48007200004546163,-0.4799875002328039
10,-0.4800160000052212,-0.47999800000450776
11,-0.48000400000298077,-0.4799995000144234
12,-0.4800020003782139,-0.4799999999994859
13,-0.48000000010927774,-0.47999996032641606
14,-0.48000000010927774,-0.47999996032641606
15,-0.48000000010927774,-0.47999996032641606
16,-0.48000000010927774,-0.47999996032641606
17,-0.48000000010927774,-0.47999996032641606
18,-0.48000000010927774,-0.47999996032641606
19,-0.48000000010927774,-0.47999996032641606
20,-0.48000000010927774,-0.47999996032641606
21,-0.48000000010927774,-0.47999996032641606
22,-0.48000000010927774,-0.47999996032641606
23,-0.48000000010927774,-0.47999996032641606
24,-0.48000000010927774,-0.47999996032641606
25,-0.48000000010927774,-0.47999996032641606
26,-0.48000000010927774,-0.47999996032641606
27,-0.48000000010927774,-0.47999996032641606
28,-0.48000000010927774,-0.47999996032641606
29,-0.48000000010927774,-0.47999996032641606
30,-0.48000000010927774,-0.47999996032641606
31,-0.48000000010927774,-0.47999996032641606
32,-0.48000000010927774,-0.47999996032641606
33,-0.48000000010927774,-0.47999996032641606
34,-0.48000000010927774,-0.47999996032641606
35,-0.48000000010927774,-0.47999996032641606
36,-0.48000000010927774,-0.47999996032641606
37,-0.48000000010927774,-0.47999996032641606
38,-0.48000000010927774,-0.47999996032641606
39,-0.48000000010927774,-0.47999996032641606
40,-0.48000000010927774,-0.47999996032641606
41,-0.48000000010927774,-0.47999996032641606
42,-0.48000000010927774,-0.47999996032641606
43,-0.48000000010927774,-0.47999996032641606
44,-0.48000000010927774,-0.47999996032641606
45,-0.48000000010927774,-0.47999996032641606
46,-0.48000000010927774,-0.47999996032641606
47,-0.48000000010927774,-0.47999996032641606
48,-0.48000000010927774,-0.47999996032641606
49,-0.48000000010927774,-0.47999996032641606
50,-0.48000000010927774,-0.47999996032641606
51,-0.48000000010927774,-0.47999996032641606
52,-0.48000000010927774,-0.47999996032641606
53,-0.48000000010927774,-0.47999996032641606
54,-0.48000000010927774,-0.47999996032641606
55,-0.48000000010927774,-0.47999996032641606
56,-0.48000000010927774,-0.47999996032641606
57,-0.48000000010927774,-0.47999996032641606
58,-0.48000000010927774,-0.47999996032641606
59,-0.48000000010927774,-0.47999996032641606
60,-0.48000000010927774,-0.47999996032641606
61,-0.48000000010927774,-0.47999996032641606
62,-0.48000000010927774,-0.47999996032641606
63,-0.48000000010927774,-0.47999996032641606
64,-0.48000000010927774,-0.47999996032641606
65,-0.48000000010927774,-0.47999996032641606
66,-0.48000000010927774,-0.47999996032641606
67,-0.48000000010927774,-0.47999996032641606
68,-0.48000000010927774,-0.47999996032641606
69,-0.48000000010927774,-0.47999996032641606
70,-0.48000000010927774,-0.47999996032641606
71,-0.48000000010927774,-0.47999996032641606
72,-0.48000000010927774,-0.47999996032641606
73,-0.48000000010927774,-0.47999996032641606
74,-0.48000000010927774,-0.47999996032641606
75,-0.48000000010927774,-0.47999996032641606
76,-0.48000000010927774,-0.47999996032641606
77,-0.48000000010927774,-0.47999996032641606
78,-0.48000000010927774,-0.47999996032641606
79,-0.48000000010927774,-0.47999996032641606
80,-0.48000000010927774,-0.47999996032641606
81,-0.48000000010927774,-0.47999996032641606
82,-0.48000000010927774,-0.47999996032641606
83,-0.48000000010927774,-0.47999996032641606
84,-0.48000000010927774,-0.47999996032641606
85,-0.48000000010927774,-0.47999996032641606
86,-0.48000000010927774,-0.47999996032641606
87,-0.48000000010927774,-0.47999996032641606
88,-0.48000000010927774,-0.47999996032641606
89,-0.48000000010927774,-0.47999996032641606
90,-0.48000000010927774,-0.47999996032641606
91,-0.48000000010927774,-0.47999996032641606
92,-0.48000000010927774,-0.47999996032641606
93,-0.48000000010927774,-0.47999996032641606
94,-0.48000000010927774,-0.47999996032641606
95,-0.48000000010927774,-0.47999996032641606
96,-0.48000000010927774,-0.47999996032641606
97,-0.48000000010927774,-0.47999996032641606
98,-0.48000000010927774,-0.47999996032641606
99,-0.48000000010927774,-0.47999996032641606

iteration,lower_bound,upper_bound
0,-1.4499374124204931,-0.07421307722443762
1,-1.0493527062102466,-0.16804273324849017
2,-0.7223824708068312,-0.11334764319594234
3,-0.9634755150132862,-0.06988041528331271
4,-1.545390412010629,-0.38984551339299217
5,-1.273450676675524,-0.11456080625337565
6,-0.7716631514361636,0.32138285274676753
7,-0.8627231765525616,0.7792141967859346
8,-1.144883712491166,0.35829321899420097
9,-1.2963753412420491,0.08423792882759124
10,-1.3722219465836814,-0.09854681795875009
11,-1.4029794510350415,-0.22237585297762708
12,-1.4059387240323455,-0.30692355434643664
13,-1.3919415294586066,-0.36463284969549653
14,-1.3676228941613662,-0.4036266506492748
15,-1.3369919632762808,-0.42935138379631393
16,-1.3028625536717937,-0.4455429484692939
17,-1.2669396340233605,-0.4548144134672973
18,-1.230321758548447,-0.4590244537927008
19,-1.193803770621025,-0.4595144641873363
20,-1.157857019639071,-0.45726472455941947
21,-1.1228213369282043,-0.4529993830299047
22,-1.0888542353226303,-0.44725833505149915
23,-1.0560639755175207,-0.44044725190627176
24,-1.0245213364968195,-0.43287291992605137
25,-0.994203208170019,-0.4247685396591001
26,-0.9651424226822404,-0.41631205852581776
27,-0.9372408361578747,-0.40763960270547267
28,-0.9105181176696718,-0.39885541780839484
29,-0.8849312470806825,-0.39003929359181067
30,-0.8604377229813058,-0.3812521561793954
31,-0.83699585663814,-0.3725403124454771
32,-0.8145247094672874,-0.3639386940311644
33,-0.7929906886006024,-0.3554733526433457
34,-0.772324897497728,-0.3471633906216142
35,-0.7524997059005688,-0.33902246247472734
36,-0.7334875516870399,-0.33105994830023067
37,-0.7152309845373811,-0.32328187470830017
38,-0.6977071131389865,-0.3156916403251512
39,-0.6808386353105121,-0.30829058924398717
40,-0.6646355466444019,-0.30107846558363716
41,-0.6565541919060273,-0.2940537746609205
42,-0.7104254432570498,-0.350913417897326
43,-0.7513487286375713,-0.3949984302078758
44,-0.7808087568900698,-0.4278246973198712
45,-0.8001350447837643,-0.4507197841508085
46,-0.8106940438309179,-0.46484885217443317
47,-0.8133697512511071,-0.471236617032819
48,-0.8091236746949622,-0.47078601284211014
49,-0.7988202412010628,-0.4642941072096826
50,-0.7832372560794733,-0.45246571288533044
51,-0.7629327319240988,-0.43592506301951994
52,-0.7384141898123233,-0.4152258531844336
53,-0.7102754455565397,-0.39085990150389777
54,-0.6789251283646026,-0.36326463602501063
55,-0.6447356082152347,-0.33282958391771333
56,-0.6253085510950963,-0.2999020087276825
57,-0.636935507110698,-0.3167299596349616
58,-0.6473738883461101,-0.33218257456701517
59,-0.6566961902070081,-0.3463681944232084
60,-0.6649701543019754,-0.35938550330000535
61,-0.6723100227809756,-0.371324509790606
62,-0.6787710065463569,-0.38226741584551754
63,-0.6844525845690701,-0.392289387535798
64,-0.6893995909603153,-0.4014592400479048
65,-0.6936541426124316,-0.4098400475340145
66,-0.6972993345137386,-0.41748968699352573
67,-0.7003691678297129,-0.42446132412839666
68,-0.7029366871365288,-0.4308038480624818
69,-0.7049892773202926,-0.43656226091453976
70,-0.7065941889073308,-0.4417780274423754
71,-0.7078132696169511,-0.44648938931187954
72,-0.7086301837317875,-0.45073164797323595
73,-0.7091022353029797,-0.45453741963239325
74,-0.7092475388322733,-0.45793686537957184
75,-0.7091170185844801,-0.46095789917172114
76,-0.7086918365249415,-0.46362637602827306
77,-0.7080195052874422,-0.465966262545595
78,-0.7071126507901326,-0.46799979156916655
79,-0.705983267655256,-0.4697476026623341
80,-0.7046724618817342,-0.4712288698208669
81,-0.7031602611270789,-0.4724614177201781
82,-0.7014852941255478,-0.4734618276391708
83,-0.6996557072907198,-0.4742455340790839
84,-0.6976792636755348,-0.4748269129851607
85,-0.6955633652607031,-0.47521936238160734
86,-0.6933407978439133,-0.4754353761434114
87,-0.6909916751411416,-0.47548661155540994
88,-0.6885470271058478,-0.47538395123606414
89,-0.6860116379157829,-0.4751375599506006
90,-0.68339008145517,-0.4747569367772496
91,-0.6806867327437006,-0.47425096305625863
92,-0.6779057786281769,-0.4736279464867547
93,-0.6750512277917071,-0.47289566172699327
94,-0.672148456972847,-0.47206138779783735
95,-0.6692000147127131,-0.47113194257066526
96,-0.6661876640455717,-0.47011371459103185
97,-0.66313505522878,-0.4690126924659297
98,-0.6600444183072773,-0.4678344920210754
99,-0.6569178941242045,-0.46658438141543296

